Bioreactor_Stats_Report
…
as.tibble(LOQs)

## # A tibble: 70 x 1
##    value
##  * <dbl>
##  1 59.1 
##  2 26.4 
##  3  6.84
##  4  4.17
##  5  2.99
##  6  2   
##  7  2   
##  8  2   
##  9  2   
## 10  2   
## # ... with 60 more rows
…
## Joining, by = "Reactor"
## Joining, by = "Reactor"

CH4.phase

## # A tibble: 258 x 3
##    Days.Elapsed Reactor phase
##           <dbl> <chr>   <chr>
##  1         0    P2      lag  
##  2         2.84 P2      lag  
##  3         4.94 P2      lag  
##  4        11.0  P2      lag  
##  5        25.9  P2      lag  
##  6        32.8  P2      lag  
##  7        45.0  P2      lag  
##  8        66.8  P2      lag  
##  9        73.9  P2      lag  
## 10        78.8  P2      peak 
## # ... with 248 more rows
…
final_raw

## # A tibble: 211 x 78
##    Days.Elapsed   dil  PFBA PFPeA PFHxA PFHpA  PFOA  PFNA  PFDA PFUnDA
##           <dbl> <dbl> <dbl> <dbl> <dbl> <dbl> <dbl> <dbl> <dbl>  <dbl>
##  1            0  1     59.8  36.5  52.4  49.1  72.9  7.70  4.66   3.49
##  2            5  1.02  41.8  45.5  63.3  52.3  71.9  5.00  3.32   4.73
##  3           12  1.04  41.8  42.6  58.4  56.0  97.5  5.85  1.41   1.41
##  4           17  1.05  41.8  62.2  71.6  59.7  98.3  5.92  4.75   2.82
##  5           26  1.05  41.8  46.7  61.4  54.3  85.2  6.12  4.24   3.68
##  6           33  1.07  65.9  53.9  71.3  52.2 101.  10.8   0.2    6.82
##  7           47  1.10  83.4  43.1  76.4  52.3  97.2  4.75  2.39   4.57
##  8           60  1.10  41.8  52.8  76.8  60.8 116.   9.58  0.2    0.2 
##  9           74  1.46  73.6  29.3  48.5  31.0  77.7  8.42  3.53   2.83
## 10           88  1.46  58.2  26.3  46.1  36.6  82.7  6.91  2.44   2.04
## # ... with 201 more rows, and 68 more variables: PFDoDA <dbl>,
## #   PFTriDA <dbl>, PFTeDA <dbl>, PFPeDA <dbl>, PFHxDA <dbl>, PFHpDA <dbl>,
## #   PFOcDA <dbl>, FBEA <dbl>, FHEA <dbl>, FOEA <dbl>, FDEA <dbl>,
## #   FBUEA <dbl>, FHUEA <dbl>, FOUEA <dbl>, FDUEA <dbl>, FPrPA <dbl>,
## #   FPePA <dbl>, FHpPA <dbl>, FNPA <dbl>, PFBS <dbl>, PFPS <dbl>,
## #   PFHxS <dbl>, PFHpS <dbl>, PFOS <dbl>, PFNS <dbl>, PFDS <dbl>,
## #   FTS.4.2 <dbl>, FTS.6.2 <dbl>, FTS.8.2 <dbl>, FBSAA <dbl>,
## #   FPeSAA <dbl>, FHxSAA <dbl>, FHpSAA <dbl>, FOSAA <dbl>, MeFBSAA <dbl>,
## #   MeFPeSAA <dbl>, MeFHxSAA <dbl>, MeFHpSAA <dbl>, MeFOSAA <dbl>,
…
subset2 <- PFASs_subset[which(summaries["max",PFASs_subset] > 10)]

working_raws <- final_raw[subset2] %>%
  cbind(final_raw[c("Days.Elapsed","dil","Reactor","Season","biotype","phase")])

summary_plot <- working_raws %>%
  gather(one_of(subset2), key = "PFAS", value = "raw_measure") %>%
  mutate(conc = raw_measure * dil)

as.tibble(summary_plot)

## # A tibble: 3,376 x 9
##    Days.Elapsed   dil Reactor Season biotype phase PFAS  raw_measure  conc
##           <dbl> <dbl> <fct>   <fct>  <fct>   <fct> <chr>       <dbl> <dbl>
##  1            0  1    P2      Fall   live    lag   PFBA         59.8  59.8
##  2            5  1.02 P2      Fall   live    lag   PFBA         41.8  42.6
##  3           12  1.04 P2      Fall   live    lag   PFBA         41.8  43.3
##  4           17  1.05 P2      Fall   live    lag   PFBA         41.8  43.7
##  5           26  1.05 P2      Fall   live    lag   PFBA         41.8  44.1
##  6           33  1.07 P2      Fall   live    lag   PFBA         65.9  70.6
##  7           47  1.10 P2      Fall   live    lag   PFBA         83.4  91.5
##  8           60  1.10 P2      Fall   live    lag   PFBA         41.8  45.9
##  9           74  1.46 P2      Fall   live    lag   PFBA         73.6 107. 
## 10           88  1.46 P2      Fall   live    peak  PFBA         58.2  85.1
## # ... with 3,366 more rows
…
